{
  "extends": "nx/presets/npm.json",
  "$schema": "./node_modules/nx/schemas/nx-schema.json",
  "npmScope": "gitlaber",
  "affected": {
    "defaultBase": "main"
  },
  "tasksRunnerOptions": {
    "default": {
      "runner": "nx/tasks-runners/default",
      "options": {
        "cacheableOperations": ["prebuild", "build", "lint", "test", "e2e"]
      }
    }
  },
  "pluginsConfig": {
    "@nrwl/js": {
      "analyzeSourceFiles": true
    }
  }
}
