{
  "$schema": "../../node_modules/nx/schemas/project-schema.json",
  "sourceRoot": "packages/publisher/src",
  "projectType": "library",
  "targets": {
    "build": {
      "executor": "@nrwl/js:tsc",
      "outputs": ["{options.outputPath}"],
      "options": {
        "outputPath": "dist/packages/publisher",
        "main": "packages/publisher/src/index.ts",
        "tsConfig": "packages/publisher/tsconfig.lib.json",
        "assets": ["packages/publisher/*.md"]
      }
    },
    "lint": {
      "executor": "@nrwl/linter:eslint",
      "outputs": ["{options.outputFile}"],
      "options": {
        "lintFilePatterns": ["packages/publisher/**/*.ts"]
      }
    }
  },
  "tags": []
}
